…
Tabulate three variables: children’s gender, age (please use derived
variables) and having an account on social media.

``` r
Data <- mutate(Data, Age = 2019 - i_ypdoby)
```

    ## Warning: package 'bindrcpp' was built under R version 3.4.4

``` r
select(Data, i_sex, Age, i_ypsocweb)
```

    ## # A tibble: 2,821 x 3
    ##    i_sex   Age i_ypsocweb
    ##    <dbl> <dbl>      <dbl>
    ##  1     2    16          1
    ##  2     1    14          1
    ##  3     1    15          1
    ##  4     2    16          1
    ##  5     1    14          1
    ##  6     1    16          1
    ##  7     1    16          1
    ##  8     2    13          1
    ##  9     1    17          2
    ## 10     1    18          1
    ## # ... with 2,811 more rows
…
